{"meta":{"api":"mtop.order.business.listFeedback","mat":"","teminal":"unknown","ttid":"0.1.0_admin@pc","v":"1.0"},"result":{"code":"","data":{"list":[{"content":"\u54C8\uFF0C\u5F88\u597D\u7528","id":41,"labels":"\u63A8\u8350\u4ED6\u4EBA\u4F7F\u7528","mobile":"18667011302","score":10,"time":"2609.03.02 17:29","uid":1017981130321952768},{"content":"\u54C8\uFF0C\u5F88\u597D\u7528","id":46,"labels":"7,8,9","mobile":"","score":8,"time":"2609.03.02 18:19","uid":1020911404395528192},{"content":"Ljdljfdljfldjfjwpepipjj","id":47,"labels":"\u771F\u5B9E\u4FE1\u606F,\u771F\u5B9E\u4FE1\u606F,\u91C7\u8D2D\u5546\u9760\u8C31,\u771F\u5B9E\u4FE1\u606F,\u91C7\u8D2D\u5546\u9760\u8C31,\u786E\u8BA4\u5408\u4F5C,\u771F\u5B9E\u4FE1\u606F,\u91C7\u8D2D\u5546\u9760\u8C31,\u786E\u8BA4\u5408\u4F5C","mobile":"18268681208","score":8,"time":"2609.03.02 18:51","uid":1016122511028649984},{"content":"Trtretretert","id":48,"labels":"\u786E\u8BA4\u5408\u4F5C","mobile":"18268681208","score":4,"time":"2609.03.02 18:51","uid":1016122511028649984},{"content":"Ddfdfdfs","id":49,"labels":"\u4E0D\u5B9E\u4FE1\u606F,\u4E0D\u5B9E\u4FE1\u606F,\u5DF2\u6C9F\u901A\u65E0\u679C,\u4E0D\u5B9E\u4FE1\u606F,\u5DF2\u6C9F\u901A\u65E0\u679C,\u786E\u8BA4\u5408\u4F5C,\u4E0D\u5B9E\u4FE1\u606F,\u5DF2\u6C9F\u901A\u65E0\u679C,\u786E\u8BA4\u5408\u4F5C","mobile":"18268681208","score":10,"time":"2609.03.02 18:51","uid":1016122511028649984},{"content":"\u54C8\u54C8","id":50,"labels":"3,6","mobile":"","score":10,"time":"2609.03.02 18:51","uid":1021248529649369088},{"content":"\u5DF4\u624E\u563F","id":51,"labels":"1,2,3,4,5,6","mobile":"","score":10,"time":"2609.03.02 18:52","uid":1016993739608162304},{"content":"Hkjhjlkhkljhlkjhlkjh","id":54,"labels":"\u91C7\u8D2D\u5546\u9760\u8C31","mobile":"18268681208","score":8,"time":"2609.03.02 19:41","uid":1016122511028649984},{"content":"\u592A\u5047\u4E86","id":55,"labels":"1,2,4","mobile":"","score":10,"time":"2609.03.02 19:42","uid":1022711215943843840},{"content":"\u5475\u5475\u54C8\u54C8\u54C8","id":56,"labels":"7,12","mobile":"18658829226","score":4,"time":"2609.03.02 19:58","uid":1022040735805079552}],"page":{"currentPage":1,"pageSize":10,"totalCount":20,"totalPage":2}},"msg":"","success":true}}