{
    "meta": {
        "api": "mtop.shop.store.getShopsList",
        "mat": "",
        "teminal": "unknown",
        "ttid": "0.1.0_admin@pc",
        "v": "1.0"
    },
    "result": {
        "code": "",
        "data": {
            "list": [
                {
                    "address": "国际商贸城一区11门23楼25街",
                    "area": "",
                    "city": "",
                    "createTimeString": "2017-03-16 22:00:50",
                    "door": "",
                    "fansCount": 0,
                    "floor": "",
                    "nickname": "180****1110",
                    "pageNo": 1,
                    "pageSize": 10,
                    "phone": "18072711110",
                    "productsCount": 0,
                    "province": "",
                    "shopIdString": "1042007001898680448",
                    "shopLinkName": "麽哦了",
                    "shopName": "摸摸",
                    "shopUrl": "http://public-read-bkt-oss.oss-cn-hangzhou.aliyuncs.com/2/qr/3c1693ca8024bca25a6167d31e05a37d.jpg",
                    "street": "",
                    "submarket": "",
                    "visitorsCount": 1,
                    "canSearch":0
                },
                {
                    "address": "国际商贸城一区555楼",
                    "area": "",
                    "city": "",
                    "createTimeString": "2017-03-15 22:55:40",
                    "door": "",
                    "fansCount": 0,
                    "floor": "",
                    "nickname": "海星",
                    "pageNo": 1,
                    "pageSize": 10,
                    "phone": "18067984567",
                    "productsCount": 0,
                    "province": "",
                    "shopIdString": "1041658414941601920",
                    "shopLinkName": "房地产沟沟壑壑家家户户给",
                    "shopName": "海星卖小星星",
                    "shopUrl": "http://public-read-bkt-oss.oss-cn-hangzhou.aliyuncs.com/2/qr/b4c87dd6499326bdd26e50aefc4d14b7.jpg",
                    "street": "",
                    "submarket": "",
                    "visitorsCount": 0,
                    "canSearch":0
                },
                {
                    "address": "北京市北京市朝阳区哈哈哈哈哈",
                    "area": "",
                    "city": "",
                    "createTimeString": "2017-03-15 14:18:22",
                    "door": "",
                    "fansCount": 0,
                    "floor": "",
                    "nickname": "153****0939",
                    "pageNo": 1,
                    "pageSize": 10,
                    "phone": "15372050939",
                    "productsCount": 0,
                    "province": "",
                    "shopIdString": "1041528232909996160",
                    "shopLinkName": "哈哈哈",
                    "shopName": "金牌商铺007",
                    "shopUrl": "http://public-read-bkt-oss.oss-cn-hangzhou.aliyuncs.com/2/qr/00da68705967c4b56cb2592c52b1c829.jpg",
                    "street": "",
                    "submarket": "",
                    "visitorsCount": 0,
                    "canSearch":0
                },
                {
                    "address": "国际商贸城一区3门1楼6街",
                    "area": "",
                    "city": "",
                    "createTimeString": "2017-03-15 10:38:28",
                    "door": "",
                    "fansCount": 0,
                    "floor": "",
                    "nickname": "153****3889",
                    "pageNo": 1,
                    "pageSize": 10,
                    "phone": "15382373889",
                    "productsCount": 1,
                    "province": "",
                    "shopIdString": "1041472892986196096",
                    "shopLinkName": "陈玉儿",
                    "shopName": "义乌百荣童趣玩具商行",
                    "shopUrl": "http://public-read-bkt-oss.oss-cn-hangzhou.aliyuncs.com/2/qr/2637a61ec6f5ebef8b35293f6ef88be4.jpg",
                    "street": "",
                    "submarket": "",
                    "visitorsCount": 0,
                    "canSearch":1
                },
                {
                    "address": "国际商贸城四区75门2楼88街",
                    "area": "",
                    "city": "",
                    "createTimeString": "2017-03-14 17:24:46",
                    "door": "",
                    "fansCount": 0,
                    "floor": "",
                    "nickname": "木容",
                    "pageNo": 1,
                    "pageSize": 10,
                    "phone": "15068111891",
                    "productsCount": 0,
                    "province": "",
                    "shopIdString": "1041212753821565056",
                    "shopLinkName": "姜杭琴",
                    "shopName": "东华服饰商行",
                    "shopUrl": "",
                    "street": "",
                    "submarket": "",
                    "visitorsCount": 1,
                    "canSearch":0
                },
                {
                    "address": "国际商贸城一区3门3楼3街",
                    "area": "",
                    "city": "",
                    "createTimeString": "2017-03-13 19:45:02",
                    "door": "",
                    "fansCount": 0,
                    "floor": "",
                    "nickname": "180****8105",
                    "pageNo": 1,
                    "pageSize": 10,
                    "phone": "18058758105",
                    "productsCount": 0,
                    "province": "",
                    "shopIdString": "1040885663263883392",
                    "shopLinkName": "啊呀呀呀",
                    "shopName": "炮弹肉铺",
                    "shopUrl": "http://public-read-bkt-oss.oss-cn-hangzhou.aliyuncs.com/2/qr/487a40af07bea29dd7e25f334de6b569.jpg",
                    "street": "",
                    "submarket": "",
                    "visitorsCount": 1
                },
                {
                    "address": "国际商贸城一区1门1楼1街",
                    "area": "",
                    "city": "",
                    "createTimeString": "2017-03-13 16:20:20",
                    "door": "",
                    "fansCount": 0,
                    "floor": "",
                    "nickname": "流逝的我们",
                    "pageNo": 1,
                    "pageSize": 10,
                    "phone": "13588113701",
                    "productsCount": 5,
                    "province": "",
                    "shopIdString": "1040834150155944064",
                    "shopLinkName": "哎呀妈呀",
                    "shopName": "简述",
                    "shopUrl": "http://public-read-bkt-oss.oss-cn-hangzhou.aliyuncs.com/2/qr/ee5870671a5372ef90842554f6bc9a26.jpg",
                    "street": "",
                    "submarket": "",
                    "visitorsCount": 0
                },
                {
                    "address": "北京市北京市东城区123",
                    "area": "",
                    "city": "",
                    "createTimeString": "2017-03-13 13:57:45",
                    "door": "",
                    "fansCount": 0,
                    "floor": "",
                    "nickname": "海萤",
                    "pageNo": 1,
                    "pageSize": 10,
                    "phone": "18626885630",
                    "productsCount": 0,
                    "province": "",
                    "shopIdString": "1040798266979254400",
                    "shopLinkName": "海萤",
                    "shopName": "海萤的店",
                    "shopUrl": "http://public-read-bkt-oss.oss-cn-hangzhou.aliyuncs.com/2/qr/13d14ef1d5f1e7b0e40d78b6964f719f.jpg",
                    "street": "",
                    "submarket": "",
                    "visitorsCount": 0
                },
                {
                    "address": "国际商贸城一区1楼",
                    "area": "",
                    "city": "",
                    "createTimeString": "2017-03-13 10:14:56",
                    "door": "",
                    "fansCount": 0,
                    "floor": "",
                    "nickname": "据说名字可以这么长的哦啊",
                    "pageNo": 1,
                    "pageSize": 10,
                    "phone": "17774256767",
                    "productsCount": 0,
                    "province": "",
                    "shopIdString": "1040742195682082944",
                    "shopLinkName": "放你那爸哈哈哈还好吧嘎嘎",
                    "shopName": "很丰富u负担一定会的回电话星语",
                    "shopUrl": "",
                    "street": "",
                    "submarket": "",
                    "visitorsCount": 0
                },
                {
                    "address": "国际商贸城二区2门5楼10街",
                    "area": "",
                    "city": "",
                    "createTimeString": "2017-03-12 16:07:14",
                    "door": "",
                    "fansCount": 0,
                    "floor": "",
                    "nickname": "心有多高",
                    "pageNo": 1,
                    "pageSize": 10,
                    "phone": "18667179855",
                    "productsCount": 1,
                    "province": "",
                    "shopIdString": "1040468465143775360",
                    "shopLinkName": "何玉元",
                    "shopName": "微信科技有限公司店铺",
                    "shopUrl": "http://public-read-bkt-oss.oss-cn-hangzhou.aliyuncs.com/2/qr/e3e075d4bce39b2caeb2d1fec76e09a8.jpg",
                    "street": "",
                    "submarket": "",
                    "visitorsCount": 0
                }
            ],
            "page": {
                "currentPage": 1,
                "pageSize": 10,
                "totalCount": 24,
                "totalPage": 3
            }
        },
        "msg": "",
        "success": true
    }
}