{
    "meta": {
        "api": "mtop.order.business.listSubjects",
        "mat": "",
        "teminal": "unknown",
        "ttid": "0.1.0_admin@pc",
        "v": "1.0"
    },
    "result": {
        "code": "",
        "data": {
            "list": [
                {
                    "at": 0,
                    "bt": null,
                    "bv": null,
                    "cn": "",
                    "ct": "饰品珠宝/脚饰脐饰",
                    "ds": "哈哈",
                    "ed": "7天内",
                    "et": 0,
                    "id": "1165918001344807904",
                    "mb": "15990315548",
                    "nn": "",
                    "no": "按商户起订量",
                    "pn": "按破格你在哪里有啊",
                    "ps": [],
                    "pt": 0,
                    "qouterAmout": 0,
                    "ratio": 0,
                    "sellerIcons": [],
                    "st": 0,
                    "ts": "2017.03.15 11:04",
                    "tx": "",
                    "uid": "1038294082123988992",
                    "canSearch":0
                },
                {
                    "at": 0,
                    "bt": null,
                    "bv": null,
                    "cn": "",
                    "ct": "饰品珠宝/饰品配件",
                    "ds": "sjjs",
                    "ed": "7天内",
                    "et": 0,
                    "id": "1165246770333352328",
                    "mb": "15867136275",
                    "nn": "",
                    "no": "按商户起订量",
                    "pn": "hh",
                    "ps": [],
                    "pt": 0,
                    "qouterAmout": 0,
                    "ratio": 0,
                    "sellerIcons": [],
                    "st": 0,
                    "ts": "2017.03.14 23:57",
                    "tx": "",
                    "uid": "1039044375895867392",
                    "canSearch":0
                },
                {
                    "at": 0,
                    "bt": null,
                    "bv": null,
                    "cn": "",
                    "ct": "办公文教/办公设备",
                    "ds": "HJj ",
                    "ed": "30天内",
                    "et": 0,
                    "id": "1164890186931503128",
                    "mb": "18367170136",
                    "nn": "",
                    "no": "11",
                    "pn": "Ddd",
                    "ps": [
                        {
                            "h": 410,
                            "p": "http://public-read-bkt-oss.oss-cn-hangzhou.aliyuncs.com/1/buy/de94712071422c4707d433f5c306f6b9.jpg",
                            "w": 410
                        }
                    ],
                    "pt": 0,
                    "qouterAmout": 0,
                    "ratio": 0,
                    "sellerIcons": [],
                    "st": 0,
                    "ts": "2017.03.14 18:03",
                    "tx": "",
                    "uid": "1034627895661953024",
                    "canSearch":1
                },
                {
                    "at": 0,
                    "bt": null,
                    "bv": null,
                    "cn": "",
                    "ct": "办公文教/办公设备",
                    "ds": "Djdj ",
                    "ed": "7天内",
                    "et": 0,
                    "id": "1164889449203761176",
                    "mb": "18367170136",
                    "nn": "",
                    "no": "111",
                    "pn": "Didjd ",
                    "ps": [],
                    "pt": 0,
                    "qouterAmout": 0,
                    "ratio": 0,
                    "sellerIcons": [],
                    "st": 0,
                    "ts": "2017.03.14 18:02",
                    "tx": "",
                    "uid": "1034627895661953024",
                    "canSearch":0
                },
                {
                    "at": 0,
                    "bt": null,
                    "bv": null,
                    "cn": "",
                    "ct": "五金工具/气动工具",
                    "ds": "288",
                    "ed": "30天内",
                    "et": 0,
                    "id": "1164889210547863576",
                    "mb": "18367170136",
                    "nn": "",
                    "no": "11",
                    "pn": "11882",
                    "ps": [
                        {
                            "h": 410,
                            "p": "http://public-read-bkt-oss.oss-cn-hangzhou.aliyuncs.com/1/buy/51d3782c9cb964823fb5002767ddac0d.jpg",
                            "w": 410
                        }
                    ],
                    "pt": 0,
                    "qouterAmout": 0,
                    "ratio": 0,
                    "sellerIcons": [],
                    "st": 0,
                    "ts": "2017.03.14 18:02",
                    "tx": "",
                    "uid": "1034627895661953024",
                    "canSearch":1
                },
                {
                    "at": 0,
                    "bt": null,
                    "bv": null,
                    "cn": "",
                    "ct": "暂不选择分类",
                    "ds": "在鸿翔鸿翔呼呼中",
                    "ed": "15天内",
                    "et": 0,
                    "id": "1164789257498526384",
                    "mb": "18157143573",
                    "nn": "",
                    "no": "按商户起订量",
                    "pn": "黑珍珠",
                    "ps": [
                        {
                            "h": 1280,
                            "p": "http://public-read-bkt-oss.oss-cn-hangzhou.aliyuncs.com/1/buy/e2dcb19581db1959fe182ac8fba7107e.jpg",
                            "w": 960
                        },
                        {
                            "h": 1280,
                            "p": "http://public-read-bkt-oss.oss-cn-hangzhou.aliyuncs.com/1/buy/aef75d5398b3855549787a54724f3cc8.jpg",
                            "w": 960
                        }
                    ],
                    "pt": 0,
                    "qouterAmout": 0,
                    "ratio": 0,
                    "sellerIcons": [],
                    "st": 0,
                    "ts": "2017.03.14 16:23",
                    "tx": "",
                    "uid": "1035319615940722688",
                    "canSearch":0
                },
                {
                    "at": 0,
                    "bt": null,
                    "bv": null,
                    "cn": "",
                    "ct": "暂不选择分类",
                    "ds": "在鸿翔鸿翔呼呼中",
                    "ed": "15天内",
                    "et": 0,
                    "id": "1164789134303429296",
                    "mb": "18157143573",
                    "nn": "",
                    "no": "按商户起订量",
                    "pn": "黑珍珠",
                    "ps": [
                        {
                            "h": 1280,
                            "p": "http://public-read-bkt-oss.oss-cn-hangzhou.aliyuncs.com/1/buy/e2dcb19581db1959fe182ac8fba7107e.jpg",
                            "w": 960
                        },
                        {
                            "h": 1280,
                            "p": "http://public-read-bkt-oss.oss-cn-hangzhou.aliyuncs.com/1/buy/aef75d5398b3855549787a54724f3cc8.jpg",
                            "w": 960
                        }
                    ],
                    "pt": 0,
                    "qouterAmout": 0,
                    "ratio": 0,
                    "sellerIcons": [],
                    "st": 0,
                    "ts": "2017.03.14 16:23",
                    "tx": "",
                    "uid": "1035319615940722688",
                    "canSearch":0
                },
                {
                    "at": 0,
                    "bt": null,
                    "bv": null,
                    "cn": "",
                    "ct": "饰品珠宝/其他饰品珠宝",
                    "ds": "多多益善",
                    "ed": "7天内",
                    "et": 0,
                    "id": "1164769026843607432",
                    "mb": "15867136275",
                    "nn": "",
                    "no": "按商户起订量",
                    "pn": "薯片",
                    "ps": [],
                    "pt": 0,
                    "qouterAmout": 0,
                    "ratio": 0,
                    "sellerIcons": [],
                    "st": 0,
                    "ts": "2017.03.14 16:03",
                    "tx": "",
                    "uid": "1039044375895867392",
                    "canSearch":0
                },
                {
                    "at": 0,
                    "bt": null,
                    "bv": null,
                    "cn": "",
                    "ct": "饰品珠宝/头饰",
                    "ds": "给弟弟",
                    "ed": "30天内",
                    "et": 0,
                    "id": "1164767578080674264",
                    "mb": "13456217336",
                    "nn": "",
                    "no": "按商户起订量",
                    "pn": "呵呵呵",
                    "ps": [
                        {
                            "h": 640,
                            "p": "http://public-read-bkt-oss.oss-cn-hangzhou.aliyuncs.com/1/buy/bad2485e8d7bedc8e35c92eb7f638a8e.jpg",
                            "w": 360
                        },
                        {
                            "h": 640,
                            "p": "http://public-read-bkt-oss.oss-cn-hangzhou.aliyuncs.com/1/buy/9030ad5e6aabab18c3f7e032d7654df5.jpg",
                            "w": 409
                        }
                    ],
                    "pt": 0,
                    "qouterAmout": 0,
                    "ratio": 0,
                    "sellerIcons": [],
                    "st": 0,
                    "ts": "2017.03.14 16:01",
                    "tx": "",
                    "uid": "1038270009943785472"
                },
                {
                    "at": 0,
                    "bt": null,
                    "bv": null,
                    "cn": "",
                    "ct": "饰品珠宝/挂件",
                    "ds": "飞出太阳系的那种",
                    "ed": "7天内",
                    "et": 0,
                    "id": "1164767060285456856",
                    "mb": "13456217336",
                    "nn": "",
                    "no": "按商户起订量",
                    "pn": "旅行者",
                    "ps": [
                        {
                            "h": 640,
                            "p": "http://public-read-bkt-oss.oss-cn-hangzhou.aliyuncs.com/1/buy/6e92662638ec6a3841db0a4f8250f8fa.jpg",
                            "w": 640
                        },
                        {
                            "h": 640,
                            "p": "http://public-read-bkt-oss.oss-cn-hangzhou.aliyuncs.com/1/buy/afc8c94c983c54da0b23cac5bf1d29b8.jpg",
                            "w": 430
                        }
                    ],
                    "pt": 0,
                    "qouterAmout": 0,
                    "ratio": 0,
                    "sellerIcons": [],
                    "st": 0,
                    "ts": "2017.03.14 16:01",
                    "tx": "",
                    "uid": "1038270009943785472"
                }
            ],
            "page": {
                "currentPage": 1,
                "pageSize": 10,
                "totalCount": 15,
                "totalPage": 2
            }
        },
        "msg": "",
        "success": true
    }
}